﻿<?xml version="1.0" encoding="utf-8"?>
<report
	progress="">
	<activity
		result="Success"
		duration="2.29s"
		durationms="2286"
		type="root"
		rid="f5ca0c54590a706"
		totalerrorcount="0"
		totalwarningcount="1"
		totalsuccesstestcasecount="0"
		totalfailedtestcasecount="0"
		totalblockedtestcasecount="0"
		childsuccesscount="0"
		childfailedcount="0"
		childblockedcount="0"
		totalsuccesscount="0"
		totalfailedcount="0"
		totalblockedcount="0"
		totalmaintenancemodecount="0"
		user="USER"
		rxversion="9.3.2.0"
		host="DESKTOP-E3K1LF7"
		osversion="Windows 10 64bit"
		runtimeversion="4.0.30319.42000"
		procarch="32bit"
		oslanguage="en-US"
		dtnlanguage="en-US"
		screenresolution="1366x768"
		timestamp="10/12/2020 3:57:59 PM"
		timestampiso="2020-10-12T08:57:59"
		endtime="10/12/2020 3:58:01 PM"
		timeoutfactor="1"
		runid=""
		sutversion="">
		<detail>
			Ranorex Testscript
		</detail>
		<item
			timeRelativeToTestSuiteStartTime="00:00.016"
			timeRelativeToTestModuleStartTime="00:00.016"
			timeWallClock="15:57:59"
			time="00:00.016"
			level="Warn"
			category="Automation">
			<message>
				The apartment state of the current thread is not set to STA. Please make sure that all threads accessing Ranorex methods have their apartment state set to STA.
			</message>
			<metainfo
				loglvl="Warn">
			</metainfo>
		</item>
	</activity>
</report>
